…
The next step in the analysis is to interpret the meaning of the components. That is, providing the PCs with a "identity". This is done by looking at metrics that measure the impact of PCs into variables. The syndRomic package works with standardized loadings and communalities. Standardized loadings are interpreted as the correlation coefficient between a PC and a variable, indicative of the contribution of variables in magnitude and direction of each PC. Communalities are the sum of squared loadings for each variable for the PCs retained during component selection, and they represent how much of the variance of each variable can be explained by the total number of kept components. These can be interpreted as the impact of a variable in the chosen PCA solution formed by the retained PCs. 

To decide PC identity, usually only the higher loadings are used. The cut-off to determine if a loading is "important" or high enough in the interpretation of a PC can be decided in several ways. Using the knowledge of the researcher, several authors suggested rules of thumb for such threshold. Others have suggested a more analytic approach. The syndRomic package implements a non-parametric permutation test for loadings as previously suggested (Buja and Eyuboglu, 1992; Linting et al., 2011).


```r
s_per<-permut_pc_test(pca, pca_data, P=1000, ndim=3, statistic = 's.loadings', perm.method = 'permV')
#> Permuting 1000 x 18 times for s.loadings using permV method
#> [==========================================================] 100% ~remaining  0s
#> 
#> Calculating loadings...
#> 
#> DONE
s_per$results
#> # A tibble: 54 x 8
#> # Groups:   component [3]
#>    Variables         component original     mean ci_low ci_high   pvalue adj.p.value
#>    <chr>             <chr>        <dbl>    <dbl>  <dbl>   <dbl>    <dbl>       <dbl>
#>  1 BBB_FergTrans     PC1       -0.493   -0.00535 -0.214   0.198 0.000999     0.00128
#>  2 BBB_FergTrans     PC2       -0.644   -0.0117  -0.270   0.236 0.000999     0.00225
#>  3 BBB_FergTrans     PC3       -0.00985  0.00473 -0.405   0.385 0.954        0.954  
#>  4 ForelimbOpenField PC1       -0.511    0.00278 -0.203   0.219 0.000999     0.00128
#>  5 ForelimbOpenField PC2       -0.315   -0.00387 -0.254   0.253 0.0120       0.0196 
#>  6 ForelimbOpenField PC3       -0.0302  -0.00939 -0.375   0.389 0.882        0.954  
#>  7 Groom             PC1       -0.389   -0.00543 -0.206   0.193 0.000999     0.00128
#>  8 Groom             PC2       -0.643   -0.00593 -0.280   0.248 0.000999     0.00225
#>  9 Groom             PC3        0.0248  -0.0128  -0.411   0.371 0.924        0.954  
#> 10 LFPA              PC1       -0.542   -0.00671 -0.226   0.203 0.000999     0.00128
#> # ... with 44 more rows
```
…
```r
booted_PCA<-pc_stability(pca, pca_data,ndim = 3,B =1000, similarity_metric = "all")
#> Bootstrapping 1000 times
#> [==========================================================] 100% ~remaining  0s
#> Calculating confident intervals by bca method
#> [==========================================================] 100% ~remaining  0s
#> Calculating PC similarities
#> 0s[==========================================================] 100% ~remaining  0s
#> 
#> 
#> Final B iterations: 1000
booted_PCA$results
#> # A tibble: 54 x 6
#>    Variables  component Original_loading   mean ci_low ci_high
#>    <chr>      <chr>                <dbl>  <dbl>  <dbl>   <dbl>
#>  1 wtChng     PC1                  0.369  0.366  0.249   0.477
#>  2 RFSL       PC1                  0.573  0.584  0.412   0.708
#>  3 RFPA       PC1                 -0.891 -0.891 -0.918  -0.851
#>  4 StepDistRF PC1                  0.651  0.652  0.576   0.717
#>  5 LFSL       PC1                  0.293  0.293  0.179   0.403
#>  6 LFPA       PC1                 -0.542 -0.543 -0.622  -0.453
#>  7 StepDistLF PC1                  0.766  0.766  0.707   0.817
#>  8 RHSL       PC1                  0.855  0.853  0.809   0.892
#>  9 RHPA       PC1                 -0.742 -0.743 -0.789  -0.684
#> 10 StepDistRH PC1                  0.245  0.250  0.107   0.370
#> # ... with 44 more rows
```
…
